[
  {
      "model": "core.Team",
      "pk": 1,
      "fields": {
          "name": "Paris Saint-Germain",
          "slug_name": "PSG",
          "sport_id": 1,
          "country": "FR",
          "created_at": "2021-04-19T10:00Z",
          "updated_at": "2021-04-19T10:00Z"
      }
  },
  {
      "model": "core.Team",
      "pk": 2,
      "fields": {
          "name": "Olympiens",
          "slug_name": "olympiens",
          "sport_id": 1,
          "country": "FR",
          "created_at": "2021-04-20T10:00Z",
          "updated_at": "2021-04-20T10:00Z"
      }
  }
]
